digraph G {
  rankdir = "RL";
  node [shape = rect, fontname = "sans-serif"];
  "data.aws_availability_zones.available_azs_controller" [label="data.aws_availability_zones.available_azs_controller"];
  "data.aws_route53_zone.dns_zone" [label="data.aws_route53_zone.dns_zone"];
  "data.aws_ssm_parameter.linux-ami-controller" [label="data.aws_ssm_parameter.linux-ami-controller"];
  "data.aws_ssm_parameter.linux-ami-worker" [label="data.aws_ssm_parameter.linux-ami-worker"];
  "aws_acm_certificate.jenkins-lb-https" [label="aws_acm_certificate.jenkins-lb-https"];
  "aws_acm_certificate_validation.jenkins-lb-certificate" [label="aws_acm_certificate_validation.jenkins-lb-certificate"];
  "aws_instance.jenkins-controller" [label="aws_instance.jenkins-controller"];
  "aws_instance.jenkins-worker" [label="aws_instance.jenkins-worker"];
  "aws_internet_gateway.igw_controller" [label="aws_internet_gateway.igw_controller"];
  "aws_internet_gateway.igw_worker" [label="aws_internet_gateway.igw_worker"];
  "aws_key_pair.key-controller" [label="aws_key_pair.key-controller"];
  "aws_key_pair.key-worker" [label="aws_key_pair.key-worker"];
  "aws_lb.application-lb" [label="aws_lb.application-lb"];
  "aws_lb_listener.jenkins-listener-http" [label="aws_lb_listener.jenkins-listener-http"];
  "aws_lb_listener.jenkins-listener-https" [label="aws_lb_listener.jenkins-listener-https"];
  "aws_lb_target_group.app-lb-tg" [label="aws_lb_target_group.app-lb-tg"];
  "aws_lb_target_group_attachment.jenkins-tg-attachment" [label="aws_lb_target_group_attachment.jenkins-tg-attachment"];
  "aws_main_route_table_association.set-controller-default-rt-association" [label="aws_main_route_table_association.set-controller-default-rt-association"];
  "aws_main_route_table_association.set-worker-default-rt-association" [label="aws_main_route_table_association.set-worker-default-rt-association"];
  "aws_route53_record.cert_validation" [label="aws_route53_record.cert_validation"];
  "aws_route53_record.jenkins-lb-dns-record" [label="aws_route53_record.jenkins-lb-dns-record"];
  "aws_route_table.internet_route" [label="aws_route_table.internet_route"];
  "aws_route_table.internet_route_worker" [label="aws_route_table.internet_route_worker"];
  "aws_security_group.jenkins-sg" [label="aws_security_group.jenkins-sg"];
  "aws_security_group.jenkins-sg-worker" [label="aws_security_group.jenkins-sg-worker"];
  "aws_security_group.lb-sg" [label="aws_security_group.lb-sg"];
  "aws_subnet.subnet_controller_1" [label="aws_subnet.subnet_controller_1"];
  "aws_subnet.subnet_controller_2" [label="aws_subnet.subnet_controller_2"];
  "aws_subnet.subnet_worker_1" [label="aws_subnet.subnet_worker_1"];
  "aws_subnet.subnet_worker_2" [label="aws_subnet.subnet_worker_2"];
  "aws_vpc.vpc_controller" [label="aws_vpc.vpc_controller"];
  "aws_vpc.vpc_worker" [label="aws_vpc.vpc_worker"];
  "aws_vpc_peering_connection.useast1-uswest2" [label="aws_vpc_peering_connection.useast1-uswest2"];
  "aws_vpc_peering_connection_accepter.accept_peering" [label="aws_vpc_peering_connection_accepter.accept_peering"];
  "aws_acm_certificate.jenkins-lb-https" -> "data.aws_route53_zone.dns_zone";
  "aws_acm_certificate_validation.jenkins-lb-certificate" -> "aws_route53_record.cert_validation";
  "aws_instance.jenkins-controller" -> "data.aws_ssm_parameter.linux-ami-controller";
  "aws_instance.jenkins-controller" -> "aws_key_pair.key-controller";
  "aws_instance.jenkins-controller" -> "aws_main_route_table_association.set-controller-default-rt-association";
  "aws_instance.jenkins-controller" -> "aws_security_group.jenkins-sg";
  "aws_instance.jenkins-controller" -> "aws_subnet.subnet_controller_1";
  "aws_instance.jenkins-worker" -> "data.aws_ssm_parameter.linux-ami-worker";
  "aws_instance.jenkins-worker" -> "aws_instance.jenkins-controller";
  "aws_instance.jenkins-worker" -> "aws_key_pair.key-worker";
  "aws_instance.jenkins-worker" -> "aws_main_route_table_association.set-worker-default-rt-association";
  "aws_instance.jenkins-worker" -> "aws_security_group.jenkins-sg-worker";
  "aws_instance.jenkins-worker" -> "aws_subnet.subnet_worker_1";
  "aws_instance.jenkins-worker" -> "aws_subnet.subnet_worker_2";
  "aws_internet_gateway.igw_controller" -> "aws_vpc.vpc_controller";
  "aws_internet_gateway.igw_worker" -> "aws_vpc.vpc_worker";
  "aws_lb.application-lb" -> "aws_security_group.lb-sg";
  "aws_lb.application-lb" -> "aws_subnet.subnet_controller_1";
  "aws_lb.application-lb" -> "aws_subnet.subnet_controller_2";
  "aws_lb_listener.jenkins-listener-http" -> "aws_lb.application-lb";
  "aws_lb_listener.jenkins-listener-https" -> "aws_acm_certificate.jenkins-lb-https";
  "aws_lb_listener.jenkins-listener-https" -> "aws_lb.application-lb";
  "aws_lb_listener.jenkins-listener-https" -> "aws_lb_target_group.app-lb-tg";
  "aws_lb_target_group.app-lb-tg" -> "aws_vpc.vpc_controller";
  "aws_lb_target_group_attachment.jenkins-tg-attachment" -> "aws_instance.jenkins-controller";
  "aws_lb_target_group_attachment.jenkins-tg-attachment" -> "aws_lb_target_group.app-lb-tg";
  "aws_main_route_table_association.set-controller-default-rt-association" -> "aws_route_table.internet_route";
  "aws_main_route_table_association.set-worker-default-rt-association" -> "aws_route_table.internet_route_worker";
  "aws_route53_record.cert_validation" -> "aws_acm_certificate.jenkins-lb-https";
  "aws_route53_record.jenkins-lb-dns-record" -> "data.aws_route53_zone.dns_zone";
  "aws_route53_record.jenkins-lb-dns-record" -> "aws_lb.application-lb";
  "aws_route_table.internet_route" -> "aws_internet_gateway.igw_controller";
  "aws_route_table.internet_route" -> "aws_vpc_peering_connection.useast1-uswest2";
  "aws_route_table.internet_route_worker" -> "aws_internet_gateway.igw_worker";
  "aws_route_table.internet_route_worker" -> "aws_vpc_peering_connection.useast1-uswest2";
  "aws_security_group.jenkins-sg" -> "aws_security_group.lb-sg";
  "aws_security_group.jenkins-sg-worker" -> "aws_vpc.vpc_worker";
  "aws_security_group.lb-sg" -> "aws_vpc.vpc_controller";
  "aws_subnet.subnet_controller_1" -> "data.aws_availability_zones.available_azs_controller";
  "aws_subnet.subnet_controller_1" -> "aws_vpc.vpc_controller";
  "aws_subnet.subnet_controller_2" -> "data.aws_availability_zones.available_azs_controller";
  "aws_subnet.subnet_controller_2" -> "aws_vpc.vpc_controller";
  "aws_subnet.subnet_worker_1" -> "aws_vpc.vpc_worker";
  "aws_subnet.subnet_worker_2" -> "aws_vpc.vpc_worker";
  "aws_vpc_peering_connection.useast1-uswest2" -> "aws_vpc.vpc_controller";
  "aws_vpc_peering_connection.useast1-uswest2" -> "aws_vpc.vpc_worker";
  "aws_vpc_peering_connection_accepter.accept_peering" -> "aws_vpc_peering_connection.useast1-uswest2";
}
